/home/kaya/Desktop/coverage/src/main/java/FirstVisitor.java
/home/kaya/Desktop/coverage/src/main/java/FinalInfo.java
/home/kaya/Desktop/coverage/src/main/java/MyNode.java
/home/kaya/Desktop/coverage/src/main/java/Instrumenter.java
/home/kaya/Desktop/coverage/src/main/java/TestSuite.java
/home/kaya/Desktop/coverage/src/main/java/InformationCollector.java
/home/kaya/Desktop/coverage/src/main/java/com/kaya/www/CommonListener.java
/home/kaya/Desktop/coverage/src/main/java/FirstPassInfo.java
/home/kaya/Desktop/coverage/src/main/java/CalculatorInstrumented.java
/home/kaya/Desktop/coverage/src/main/java/MyTestRunner.java
/home/kaya/Desktop/coverage/src/main/java/SecondPassInfo.java
/home/kaya/Desktop/coverage/src/main/java/com/kaya/www/StatementCoverageData.java
